interactions:
- request:
    body: null
    headers:
      Accept:
      - '*/*'
      Accept-Encoding:
      - gzip, deflate, zstd
      Connection:
      - keep-alive
      User-Agent:
      - python-requests/2.33.1
    method: GET
    uri: http://localhost:8037/api/dcim/devices/?limit=10&offset=0
  response:
    body:
      string: '{"count":72,"next":"http://localhost:8037/api/dcim/devices/?limit=10&offset=10","previous":null,"results":[{"id":88,"url":"http://localhost:8037/api/dcim/devices/88/","display":"PP:B117","name":"PP:B117","device_type":{"id":11,"url":"http://localhost:8037/api/dcim/device-types/11/","display":"48-Pair
        Fiber Panel","manufacturer":{"id":13,"url":"http://localhost:8037/api/dcim/manufacturers/13/","display":"Generic","name":"Generic","slug":"generic"},"model":"48-Pair
        Fiber Panel","slug":"48-pair-fiber-panel"},"role":{"id":6,"url":"http://localhost:8037/api/dcim/device-roles/6/","display":"Patch
        Panel","name":"Patch Panel","slug":"patch-panel"},"device_role":{"id":6,"url":"http://localhost:8037/api/dcim/device-roles/6/","display":"Patch
        Panel","name":"Patch Panel","slug":"patch-panel"},"tenant":{"id":13,"url":"http://localhost:8037/api/tenancy/tenants/13/","display":"NC
        State University","name":"NC State University","slug":"nc-state"},"platform":null,"serial":"","asset_tag":null,"site":{"id":21,"url":"http://localhost:8037/api/dcim/sites/21/","display":"MDF","name":"MDF","slug":"ncsu-065"},"location":null,"rack":{"id":41,"url":"http://localhost:8037/api/dcim/racks/41/","display":"Plant
        1","name":"Plant 1"},"position":37.0,"face":{"value":"front","label":"Front"},"latitude":null,"longitude":null,"parent_device":null,"status":{"value":"active","label":"Active"},"airflow":null,"primary_ip":null,"primary_ip4":null,"primary_ip6":null,"oob_ip":null,"cluster":null,"virtual_chassis":null,"vc_position":null,"vc_priority":null,"description":"","comments":"","config_template":null,"config_context":{},"local_context_data":null,"tags":[],"custom_fields":{},"created":"2021-04-02T00:00:00Z","last_updated":"2021-04-02T17:17:28.425000Z","console_port_count":0,"console_server_port_count":0,"power_port_count":0,"power_outlet_count":0,"interface_count":0,"front_port_count":48,"rear_port_count":1,"device_bay_count":0,"module_bay_count":0,"inventory_item_count":0},{"id":89,"url":"http://localhost:8037/api/dcim/devices/89/","display":"PP:B118","name":"PP:B118","device_type":{"id":11,"url":"http://localhost:8037/api/dcim/device-types/11/","display":"48-Pair
        Fiber Panel","manufacturer":{"id":13,"url":"http://localhost:8037/api/dcim/manufacturers/13/","display":"Generic","name":"Generic","slug":"generic"},"model":"48-Pair
        Fiber Panel","slug":"48-pair-fiber-panel"},"role":{"id":6,"url":"http://localhost:8037/api/dcim/device-roles/6/","display":"Patch
        Panel","name":"Patch Panel","slug":"patch-panel"},"device_role":{"id":6,"url":"http://localhost:8037/api/dcim/device-roles/6/","display":"Patch
        Panel","name":"Patch Panel","slug":"patch-panel"},"tenant":{"id":13,"url":"http://localhost:8037/api/tenancy/tenants/13/","display":"NC
        State University","name":"NC State University","slug":"nc-state"},"platform":null,"serial":"","asset_tag":null,"site":{"id":21,"url":"http://localhost:8037/api/dcim/sites/21/","display":"MDF","name":"MDF","slug":"ncsu-065"},"location":null,"rack":{"id":41,"url":"http://localhost:8037/api/dcim/racks/41/","display":"Plant
        1","name":"Plant 1"},"position":35.0,"face":{"value":"front","label":"Front"},"latitude":null,"longitude":null,"parent_device":null,"status":{"value":"active","label":"Active"},"airflow":null,"primary_ip":null,"primary_ip4":null,"primary_ip6":null,"oob_ip":null,"cluster":null,"virtual_chassis":null,"vc_position":null,"vc_priority":null,"description":"","comments":"","config_template":null,"config_context":{},"local_context_data":null,"tags":[],"custom_fields":{},"created":"2021-04-02T00:00:00Z","last_updated":"2021-04-02T17:17:57.268000Z","console_port_count":0,"console_server_port_count":0,"power_port_count":0,"power_outlet_count":0,"interface_count":0,"front_port_count":48,"rear_port_count":1,"device_bay_count":0,"module_bay_count":0,"inventory_item_count":0},{"id":87,"url":"http://localhost:8037/api/dcim/devices/87/","display":"PP:B128","name":"PP:B128","device_type":{"id":11,"url":"http://localhost:8037/api/dcim/device-types/11/","display":"48-Pair
        Fiber Panel","manufacturer":{"id":13,"url":"http://localhost:8037/api/dcim/manufacturers/13/","display":"Generic","name":"Generic","slug":"generic"},"model":"48-Pair
        Fiber Panel","slug":"48-pair-fiber-panel"},"role":{"id":6,"url":"http://localhost:8037/api/dcim/device-roles/6/","display":"Patch
        Panel","name":"Patch Panel","slug":"patch-panel"},"device_role":{"id":6,"url":"http://localhost:8037/api/dcim/device-roles/6/","display":"Patch
        Panel","name":"Patch Panel","slug":"patch-panel"},"tenant":{"id":13,"url":"http://localhost:8037/api/tenancy/tenants/13/","display":"NC
        State University","name":"NC State University","slug":"nc-state"},"platform":null,"serial":"","asset_tag":null,"site":{"id":21,"url":"http://localhost:8037/api/dcim/sites/21/","display":"MDF","name":"MDF","slug":"ncsu-065"},"location":null,"rack":{"id":41,"url":"http://localhost:8037/api/dcim/racks/41/","display":"Plant
        1","name":"Plant 1"},"position":39.0,"face":{"value":"front","label":"Front"},"latitude":null,"longitude":null,"parent_device":null,"status":{"value":"active","label":"Active"},"airflow":null,"primary_ip":null,"primary_ip4":null,"primary_ip6":null,"oob_ip":null,"cluster":null,"virtual_chassis":null,"vc_position":null,"vc_priority":null,"description":"","comments":"","config_template":null,"config_context":{},"local_context_data":null,"tags":[],"custom_fields":{},"created":"2021-04-02T00:00:00Z","last_updated":"2021-04-02T17:16:58.069000Z","console_port_count":0,"console_server_port_count":0,"power_port_count":0,"power_outlet_count":0,"interface_count":0,"front_port_count":48,"rear_port_count":1,"device_bay_count":0,"module_bay_count":0,"inventory_item_count":0},{"id":90,"url":"http://localhost:8037/api/dcim/devices/90/","display":"PP:MDF","name":"PP:MDF","device_type":{"id":11,"url":"http://localhost:8037/api/dcim/device-types/11/","display":"48-Pair
        Fiber Panel","manufacturer":{"id":13,"url":"http://localhost:8037/api/dcim/manufacturers/13/","display":"Generic","name":"Generic","slug":"generic"},"model":"48-Pair
        Fiber Panel","slug":"48-pair-fiber-panel"},"role":{"id":6,"url":"http://localhost:8037/api/dcim/device-roles/6/","display":"Patch
        Panel","name":"Patch Panel","slug":"patch-panel"},"device_role":{"id":6,"url":"http://localhost:8037/api/dcim/device-roles/6/","display":"Patch
        Panel","name":"Patch Panel","slug":"patch-panel"},"tenant":{"id":13,"url":"http://localhost:8037/api/tenancy/tenants/13/","display":"NC
        State University","name":"NC State University","slug":"nc-state"},"platform":null,"serial":"","asset_tag":null,"site":{"id":24,"url":"http://localhost:8037/api/dcim/sites/24/","display":"Butler
        Communications","name":"Butler Communications","slug":"ncsu-128"},"location":null,"rack":{"id":39,"url":"http://localhost:8037/api/dcim/racks/39/","display":"IDF128","name":"IDF128"},"position":39.0,"face":{"value":"front","label":"Front"},"latitude":null,"longitude":null,"parent_device":null,"status":{"value":"active","label":"Active"},"airflow":null,"primary_ip":null,"primary_ip4":null,"primary_ip6":null,"oob_ip":null,"cluster":null,"virtual_chassis":null,"vc_position":null,"vc_priority":null,"description":"","comments":"","config_template":null,"config_context":{},"local_context_data":null,"tags":[],"custom_fields":{},"created":"2021-04-02T00:00:00Z","last_updated":"2021-04-02T17:19:12.870000Z","console_port_count":0,"console_server_port_count":0,"power_port_count":0,"power_outlet_count":0,"interface_count":0,"front_port_count":48,"rear_port_count":1,"device_bay_count":0,"module_bay_count":0,"inventory_item_count":0},{"id":91,"url":"http://localhost:8037/api/dcim/devices/91/","display":"PP:MDF","name":"PP:MDF","device_type":{"id":11,"url":"http://localhost:8037/api/dcim/device-types/11/","display":"48-Pair
        Fiber Panel","manufacturer":{"id":13,"url":"http://localhost:8037/api/dcim/manufacturers/13/","display":"Generic","name":"Generic","slug":"generic"},"model":"48-Pair
        Fiber Panel","slug":"48-pair-fiber-panel"},"role":{"id":6,"url":"http://localhost:8037/api/dcim/device-roles/6/","display":"Patch
        Panel","name":"Patch Panel","slug":"patch-panel"},"device_role":{"id":6,"url":"http://localhost:8037/api/dcim/device-roles/6/","display":"Patch
        Panel","name":"Patch Panel","slug":"patch-panel"},"tenant":{"id":13,"url":"http://localhost:8037/api/tenancy/tenants/13/","display":"NC
        State University","name":"NC State University","slug":"nc-state"},"platform":null,"serial":"","asset_tag":null,"site":{"id":22,"url":"http://localhost:8037/api/dcim/sites/22/","display":"D.
        S. Weaver Labs","name":"D. S. Weaver Labs","slug":"ncsu-117"},"location":null,"rack":{"id":40,"url":"http://localhost:8037/api/dcim/racks/40/","display":"IDF117","name":"IDF117"},"position":39.0,"face":{"value":"front","label":"Front"},"latitude":null,"longitude":null,"parent_device":null,"status":{"value":"active","label":"Active"},"airflow":null,"primary_ip":null,"primary_ip4":null,"primary_ip6":null,"oob_ip":null,"cluster":null,"virtual_chassis":null,"vc_position":null,"vc_priority":null,"description":"","comments":"","config_template":null,"config_context":{},"local_context_data":null,"tags":[],"custom_fields":{},"created":"2021-04-02T00:00:00Z","last_updated":"2021-04-02T17:19:41.498000Z","console_port_count":0,"console_server_port_count":0,"power_port_count":0,"power_outlet_count":0,"interface_count":0,"front_port_count":48,"rear_port_count":1,"device_bay_count":0,"module_bay_count":0,"inventory_item_count":0},{"id":92,"url":"http://localhost:8037/api/dcim/devices/92/","display":"PP:MDF","name":"PP:MDF","device_type":{"id":11,"url":"http://localhost:8037/api/dcim/device-types/11/","display":"48-Pair
        Fiber Panel","manufacturer":{"id":13,"url":"http://localhost:8037/api/dcim/manufacturers/13/","display":"Generic","name":"Generic","slug":"generic"},"model":"48-Pair
        Fiber Panel","slug":"48-pair-fiber-panel"},"role":{"id":6,"url":"http://localhost:8037/api/dcim/device-roles/6/","display":"Patch
        Panel","name":"Patch Panel","slug":"patch-panel"},"device_role":{"id":6,"url":"http://localhost:8037/api/dcim/device-roles/6/","display":"Patch
        Panel","name":"Patch Panel","slug":"patch-panel"},"tenant":{"id":13,"url":"http://localhost:8037/api/tenancy/tenants/13/","display":"NC
        State University","name":"NC State University","slug":"nc-state"},"platform":null,"serial":"","asset_tag":null,"site":{"id":23,"url":"http://localhost:8037/api/dcim/sites/23/","display":"Grinnells
        Lab","name":"Grinnells Lab","slug":"ncsu-118"},"location":null,"rack":{"id":38,"url":"http://localhost:8037/api/dcim/racks/38/","display":"IDF118","name":"IDF118"},"position":39.0,"face":{"value":"front","label":"Front"},"latitude":null,"longitude":null,"parent_device":null,"status":{"value":"active","label":"Active"},"airflow":null,"primary_ip":null,"primary_ip4":null,"primary_ip6":null,"oob_ip":null,"cluster":null,"virtual_chassis":null,"vc_position":null,"vc_priority":null,"description":"","comments":"","config_template":null,"config_context":{},"local_context_data":null,"tags":[],"custom_fields":{},"created":"2021-04-02T00:00:00Z","last_updated":"2021-04-02T17:20:15.226000Z","console_port_count":0,"console_server_port_count":0,"power_port_count":0,"power_outlet_count":0,"interface_count":0,"front_port_count":48,"rear_port_count":1,"device_bay_count":0,"module_bay_count":0,"inventory_item_count":0},{"id":27,"url":"http://localhost:8037/api/dcim/devices/27/","display":"dmi01-akron-pdu01","name":"dmi01-akron-pdu01","device_type":{"id":8,"url":"http://localhost:8037/api/dcim/device-types/8/","display":"AP7901","manufacturer":{"id":11,"url":"http://localhost:8037/api/dcim/manufacturers/11/","display":"APC","name":"APC","slug":"apc"},"model":"AP7901","slug":"ap7901"},"role":{"id":5,"url":"http://localhost:8037/api/dcim/device-roles/5/","display":"PDU","name":"PDU","slug":"pdu"},"device_role":{"id":5,"url":"http://localhost:8037/api/dcim/device-roles/5/","display":"PDU","name":"PDU","slug":"pdu"},"tenant":{"id":5,"url":"http://localhost:8037/api/tenancy/tenants/5/","display":"Dunder-Mifflin,
        Inc.","name":"Dunder-Mifflin, Inc.","slug":"dunder-mifflin"},"platform":null,"serial":"","asset_tag":null,"site":{"id":2,"url":"http://localhost:8037/api/dcim/sites/2/","display":"DM-Akron","name":"DM-Akron","slug":"dm-akron"},"location":null,"rack":{"id":1,"url":"http://localhost:8037/api/dcim/racks/1/","display":"Comms
        closet","name":"Comms closet"},"position":1.0,"face":{"value":"front","label":"Front"},"latitude":null,"longitude":null,"parent_device":null,"status":{"value":"active","label":"Active"},"airflow":null,"primary_ip":null,"primary_ip4":null,"primary_ip6":null,"oob_ip":null,"cluster":null,"virtual_chassis":null,"vc_position":null,"vc_priority":null,"description":"","comments":"","config_template":null,"config_context":{},"local_context_data":null,"tags":[],"custom_fields":{},"created":"2020-12-22T00:00:00Z","last_updated":"2020-12-30T19:02:55.760000Z","console_port_count":0,"console_server_port_count":0,"power_port_count":1,"power_outlet_count":8,"interface_count":0,"front_port_count":0,"rear_port_count":0,"device_bay_count":0,"module_bay_count":0,"inventory_item_count":0},{"id":1,"url":"http://localhost:8037/api/dcim/devices/1/","display":"dmi01-akron-rtr01","name":"dmi01-akron-rtr01","device_type":{"id":6,"url":"http://localhost:8037/api/dcim/device-types/6/","display":"ISR
        1111-8P","manufacturer":{"id":3,"url":"http://localhost:8037/api/dcim/manufacturers/3/","display":"Cisco","name":"Cisco","slug":"cisco"},"model":"ISR
        1111-8P","slug":"isr1111"},"role":{"id":1,"url":"http://localhost:8037/api/dcim/device-roles/1/","display":"Router","name":"Router","slug":"router"},"device_role":{"id":1,"url":"http://localhost:8037/api/dcim/device-roles/1/","display":"Router","name":"Router","slug":"router"},"tenant":{"id":5,"url":"http://localhost:8037/api/tenancy/tenants/5/","display":"Dunder-Mifflin,
        Inc.","name":"Dunder-Mifflin, Inc.","slug":"dunder-mifflin"},"platform":{"id":1,"url":"http://localhost:8037/api/dcim/platforms/1/","display":"Cisco
        IOS","name":"Cisco IOS","slug":"cisco-ios"},"serial":"","asset_tag":null,"site":{"id":2,"url":"http://localhost:8037/api/dcim/sites/2/","display":"DM-Akron","name":"DM-Akron","slug":"dm-akron"},"location":null,"rack":{"id":1,"url":"http://localhost:8037/api/dcim/racks/1/","display":"Comms
        closet","name":"Comms closet"},"position":4.0,"face":{"value":"front","label":"Front"},"latitude":null,"longitude":null,"parent_device":null,"status":{"value":"active","label":"Active"},"airflow":null,"primary_ip":null,"primary_ip4":null,"primary_ip6":null,"oob_ip":null,"cluster":null,"virtual_chassis":null,"vc_position":null,"vc_priority":null,"description":"","comments":"","config_template":null,"config_context":{},"local_context_data":null,"tags":[],"custom_fields":{},"created":"2020-12-20T00:00:00Z","last_updated":"2020-12-20T02:51:03.257000Z","console_port_count":2,"console_server_port_count":0,"power_port_count":1,"power_outlet_count":0,"interface_count":14,"front_port_count":0,"rear_port_count":0,"device_bay_count":0,"module_bay_count":0,"inventory_item_count":0},{"id":14,"url":"http://localhost:8037/api/dcim/devices/14/","display":"dmi01-akron-sw01","name":"dmi01-akron-sw01","device_type":{"id":7,"url":"http://localhost:8037/api/dcim/device-types/7/","display":"C9200-48P","manufacturer":{"id":3,"url":"http://localhost:8037/api/dcim/manufacturers/3/","display":"Cisco","name":"Cisco","slug":"cisco"},"model":"C9200-48P","slug":"c9200-48p"},"role":{"id":4,"url":"http://localhost:8037/api/dcim/device-roles/4/","display":"Access
        Switch","name":"Access Switch","slug":"access-switch"},"device_role":{"id":4,"url":"http://localhost:8037/api/dcim/device-roles/4/","display":"Access
        Switch","name":"Access Switch","slug":"access-switch"},"tenant":{"id":5,"url":"http://localhost:8037/api/tenancy/tenants/5/","display":"Dunder-Mifflin,
        Inc.","name":"Dunder-Mifflin, Inc.","slug":"dunder-mifflin"},"platform":null,"serial":"","asset_tag":null,"site":{"id":2,"url":"http://localhost:8037/api/dcim/sites/2/","display":"DM-Akron","name":"DM-Akron","slug":"dm-akron"},"location":null,"rack":{"id":1,"url":"http://localhost:8037/api/dcim/racks/1/","display":"Comms
        closet","name":"Comms closet"},"position":10.0,"face":{"value":"front","label":"Front"},"latitude":null,"longitude":null,"parent_device":null,"status":{"value":"active","label":"Active"},"airflow":null,"primary_ip":null,"primary_ip4":null,"primary_ip6":null,"oob_ip":null,"cluster":null,"virtual_chassis":null,"vc_position":null,"vc_priority":null,"description":"","comments":"","config_template":null,"config_context":{},"local_context_data":null,"tags":[],"custom_fields":{},"created":"2020-12-22T00:00:00Z","last_updated":"2020-12-22T02:11:11.625000Z","console_port_count":0,"console_server_port_count":0,"power_port_count":1,"power_outlet_count":0,"interface_count":52,"front_port_count":0,"rear_port_count":0,"device_bay_count":0,"module_bay_count":0,"inventory_item_count":0},{"id":34,"url":"http://localhost:8037/api/dcim/devices/34/","display":"dmi01-albany-pdu01","name":"dmi01-albany-pdu01","device_type":{"id":8,"url":"http://localhost:8037/api/dcim/device-types/8/","display":"AP7901","manufacturer":{"id":11,"url":"http://localhost:8037/api/dcim/manufacturers/11/","display":"APC","name":"APC","slug":"apc"},"model":"AP7901","slug":"ap7901"},"role":{"id":5,"url":"http://localhost:8037/api/dcim/device-roles/5/","display":"PDU","name":"PDU","slug":"pdu"},"device_role":{"id":5,"url":"http://localhost:8037/api/dcim/device-roles/5/","display":"PDU","name":"PDU","slug":"pdu"},"tenant":{"id":5,"url":"http://localhost:8037/api/tenancy/tenants/5/","display":"Dunder-Mifflin,
        Inc.","name":"Dunder-Mifflin, Inc.","slug":"dunder-mifflin"},"platform":null,"serial":"","asset_tag":null,"site":{"id":3,"url":"http://localhost:8037/api/dcim/sites/3/","display":"DM-Albany","name":"DM-Albany","slug":"dm-albany"},"location":null,"rack":{"id":2,"url":"http://localhost:8037/api/dcim/racks/2/","display":"Comms
        closet","name":"Comms closet"},"position":1.0,"face":{"value":"front","label":"Front"},"latitude":null,"longitude":null,"parent_device":null,"status":{"value":"active","label":"Active"},"airflow":null,"primary_ip":null,"primary_ip4":null,"primary_ip6":null,"oob_ip":null,"cluster":null,"virtual_chassis":null,"vc_position":null,"vc_priority":null,"description":"","comments":"","config_template":null,"config_context":{},"local_context_data":null,"tags":[],"custom_fields":{},"created":"2020-12-22T00:00:00Z","last_updated":"2020-12-30T19:02:55.909000Z","console_port_count":0,"console_server_port_count":0,"power_port_count":1,"power_outlet_count":8,"interface_count":0,"front_port_count":0,"rear_port_count":0,"device_bay_count":0,"module_bay_count":0,"inventory_item_count":0}]}'
    headers:
      Allow:
      - GET, POST, PUT, PATCH, DELETE, HEAD, OPTIONS
      Content-Length:
      - '18812'
      Content-Type:
      - application/json
      Cross-Origin-Opener-Policy:
      - same-origin
      Referrer-Policy:
      - same-origin
      Server:
      - Unit/1.31.1
      Vary:
      - HX-Request, Cookie, origin
      X-Content-Type-Options:
      - nosniff
      X-Frame-Options:
      - SAMEORIGIN
    status:
      code: 200
      message: OK
version: 1
