interactions:
- request:
    body: null
    headers:
      Accept:
      - '*/*'
      Accept-Encoding:
      - gzip, deflate, zstd
      Connection:
      - keep-alive
      User-Agent:
      - python-requests/2.33.1
    method: GET
    uri: http://localhost:8042/api/dcim/devices/?limit=10&offset=0
  response:
    body:
      string: '{"count":72,"next":"http://localhost:8042/api/dcim/devices/?limit=10&offset=10","previous":null,"results":[{"id":27,"url":"http://localhost:8042/api/dcim/devices/27/","display_url":"http://localhost:8042/dcim/devices/27/","display":"dmi01-akron-pdu01","name":"dmi01-akron-pdu01","device_type":{"id":8,"url":"http://localhost:8042/api/dcim/device-types/8/","display":"AP7901","manufacturer":{"id":11,"url":"http://localhost:8042/api/dcim/manufacturers/11/","display":"APC","name":"APC","slug":"apc","description":""},"model":"AP7901","slug":"ap7901","description":""},"role":{"id":5,"url":"http://localhost:8042/api/dcim/device-roles/5/","display":"PDU","name":"PDU","slug":"pdu","description":""},"tenant":{"id":5,"url":"http://localhost:8042/api/tenancy/tenants/5/","display":"Dunder-Mifflin,
        Inc.","name":"Dunder-Mifflin, Inc.","slug":"dunder-mifflin","description":""},"platform":null,"serial":"","asset_tag":null,"site":{"id":2,"url":"http://localhost:8042/api/dcim/sites/2/","display":"DM-Akron","name":"DM-Akron","slug":"dm-akron","description":""},"location":null,"rack":{"id":1,"url":"http://localhost:8042/api/dcim/racks/1/","display":"Comms
        closet","name":"Comms closet","description":""},"position":1.0,"face":{"value":"front","label":"Front"},"latitude":null,"longitude":null,"parent_device":null,"status":{"value":"active","label":"Active"},"airflow":null,"primary_ip":null,"primary_ip4":null,"primary_ip6":null,"oob_ip":null,"cluster":null,"virtual_chassis":null,"vc_position":null,"vc_priority":null,"description":"","comments":"","config_template":null,"config_context":{},"local_context_data":null,"tags":[],"custom_fields":{},"created":"2020-12-22T00:00:00Z","last_updated":"2020-12-30T19:02:55.760000Z","console_port_count":0,"console_server_port_count":0,"power_port_count":1,"power_outlet_count":8,"interface_count":0,"front_port_count":0,"rear_port_count":0,"device_bay_count":0,"module_bay_count":0,"inventory_item_count":0},{"id":1,"url":"http://localhost:8042/api/dcim/devices/1/","display_url":"http://localhost:8042/dcim/devices/1/","display":"dmi01-akron-rtr01","name":"dmi01-akron-rtr01","device_type":{"id":6,"url":"http://localhost:8042/api/dcim/device-types/6/","display":"ISR
        1111-8P","manufacturer":{"id":3,"url":"http://localhost:8042/api/dcim/manufacturers/3/","display":"Cisco","name":"Cisco","slug":"cisco","description":""},"model":"ISR
        1111-8P","slug":"isr1111","description":""},"role":{"id":1,"url":"http://localhost:8042/api/dcim/device-roles/1/","display":"Router","name":"Router","slug":"router","description":""},"tenant":{"id":5,"url":"http://localhost:8042/api/tenancy/tenants/5/","display":"Dunder-Mifflin,
        Inc.","name":"Dunder-Mifflin, Inc.","slug":"dunder-mifflin","description":""},"platform":{"id":1,"url":"http://localhost:8042/api/dcim/platforms/1/","display":"Cisco
        IOS","name":"Cisco IOS","slug":"cisco-ios","description":""},"serial":"","asset_tag":null,"site":{"id":2,"url":"http://localhost:8042/api/dcim/sites/2/","display":"DM-Akron","name":"DM-Akron","slug":"dm-akron","description":""},"location":null,"rack":{"id":1,"url":"http://localhost:8042/api/dcim/racks/1/","display":"Comms
        closet","name":"Comms closet","description":""},"position":4.0,"face":{"value":"front","label":"Front"},"latitude":null,"longitude":null,"parent_device":null,"status":{"value":"active","label":"Active"},"airflow":null,"primary_ip":null,"primary_ip4":null,"primary_ip6":null,"oob_ip":null,"cluster":null,"virtual_chassis":null,"vc_position":null,"vc_priority":null,"description":"","comments":"","config_template":null,"config_context":{},"local_context_data":null,"tags":[],"custom_fields":{},"created":"2020-12-20T00:00:00Z","last_updated":"2020-12-20T02:51:03.257000Z","console_port_count":2,"console_server_port_count":0,"power_port_count":1,"power_outlet_count":0,"interface_count":14,"front_port_count":0,"rear_port_count":0,"device_bay_count":0,"module_bay_count":0,"inventory_item_count":0},{"id":14,"url":"http://localhost:8042/api/dcim/devices/14/","display_url":"http://localhost:8042/dcim/devices/14/","display":"dmi01-akron-sw01","name":"dmi01-akron-sw01","device_type":{"id":7,"url":"http://localhost:8042/api/dcim/device-types/7/","display":"C9200-48P","manufacturer":{"id":3,"url":"http://localhost:8042/api/dcim/manufacturers/3/","display":"Cisco","name":"Cisco","slug":"cisco","description":""},"model":"C9200-48P","slug":"c9200-48p","description":""},"role":{"id":4,"url":"http://localhost:8042/api/dcim/device-roles/4/","display":"Access
        Switch","name":"Access Switch","slug":"access-switch","description":""},"tenant":{"id":5,"url":"http://localhost:8042/api/tenancy/tenants/5/","display":"Dunder-Mifflin,
        Inc.","name":"Dunder-Mifflin, Inc.","slug":"dunder-mifflin","description":""},"platform":null,"serial":"","asset_tag":null,"site":{"id":2,"url":"http://localhost:8042/api/dcim/sites/2/","display":"DM-Akron","name":"DM-Akron","slug":"dm-akron","description":""},"location":null,"rack":{"id":1,"url":"http://localhost:8042/api/dcim/racks/1/","display":"Comms
        closet","name":"Comms closet","description":""},"position":10.0,"face":{"value":"front","label":"Front"},"latitude":null,"longitude":null,"parent_device":null,"status":{"value":"active","label":"Active"},"airflow":null,"primary_ip":null,"primary_ip4":null,"primary_ip6":null,"oob_ip":null,"cluster":null,"virtual_chassis":null,"vc_position":null,"vc_priority":null,"description":"","comments":"","config_template":null,"config_context":{},"local_context_data":null,"tags":[],"custom_fields":{},"created":"2020-12-22T00:00:00Z","last_updated":"2020-12-22T02:11:11.625000Z","console_port_count":0,"console_server_port_count":0,"power_port_count":1,"power_outlet_count":0,"interface_count":52,"front_port_count":0,"rear_port_count":0,"device_bay_count":0,"module_bay_count":0,"inventory_item_count":0},{"id":34,"url":"http://localhost:8042/api/dcim/devices/34/","display_url":"http://localhost:8042/dcim/devices/34/","display":"dmi01-albany-pdu01","name":"dmi01-albany-pdu01","device_type":{"id":8,"url":"http://localhost:8042/api/dcim/device-types/8/","display":"AP7901","manufacturer":{"id":11,"url":"http://localhost:8042/api/dcim/manufacturers/11/","display":"APC","name":"APC","slug":"apc","description":""},"model":"AP7901","slug":"ap7901","description":""},"role":{"id":5,"url":"http://localhost:8042/api/dcim/device-roles/5/","display":"PDU","name":"PDU","slug":"pdu","description":""},"tenant":{"id":5,"url":"http://localhost:8042/api/tenancy/tenants/5/","display":"Dunder-Mifflin,
        Inc.","name":"Dunder-Mifflin, Inc.","slug":"dunder-mifflin","description":""},"platform":null,"serial":"","asset_tag":null,"site":{"id":3,"url":"http://localhost:8042/api/dcim/sites/3/","display":"DM-Albany","name":"DM-Albany","slug":"dm-albany","description":""},"location":null,"rack":{"id":2,"url":"http://localhost:8042/api/dcim/racks/2/","display":"Comms
        closet","name":"Comms closet","description":""},"position":1.0,"face":{"value":"front","label":"Front"},"latitude":null,"longitude":null,"parent_device":null,"status":{"value":"active","label":"Active"},"airflow":null,"primary_ip":null,"primary_ip4":null,"primary_ip6":null,"oob_ip":null,"cluster":null,"virtual_chassis":null,"vc_position":null,"vc_priority":null,"description":"","comments":"","config_template":null,"config_context":{},"local_context_data":null,"tags":[],"custom_fields":{},"created":"2020-12-22T00:00:00Z","last_updated":"2020-12-30T19:02:55.909000Z","console_port_count":0,"console_server_port_count":0,"power_port_count":1,"power_outlet_count":8,"interface_count":0,"front_port_count":0,"rear_port_count":0,"device_bay_count":0,"module_bay_count":0,"inventory_item_count":0},{"id":2,"url":"http://localhost:8042/api/dcim/devices/2/","display_url":"http://localhost:8042/dcim/devices/2/","display":"dmi01-albany-rtr01","name":"dmi01-albany-rtr01","device_type":{"id":6,"url":"http://localhost:8042/api/dcim/device-types/6/","display":"ISR
        1111-8P","manufacturer":{"id":3,"url":"http://localhost:8042/api/dcim/manufacturers/3/","display":"Cisco","name":"Cisco","slug":"cisco","description":""},"model":"ISR
        1111-8P","slug":"isr1111","description":""},"role":{"id":1,"url":"http://localhost:8042/api/dcim/device-roles/1/","display":"Router","name":"Router","slug":"router","description":""},"tenant":{"id":5,"url":"http://localhost:8042/api/tenancy/tenants/5/","display":"Dunder-Mifflin,
        Inc.","name":"Dunder-Mifflin, Inc.","slug":"dunder-mifflin","description":""},"platform":{"id":1,"url":"http://localhost:8042/api/dcim/platforms/1/","display":"Cisco
        IOS","name":"Cisco IOS","slug":"cisco-ios","description":""},"serial":"","asset_tag":null,"site":{"id":3,"url":"http://localhost:8042/api/dcim/sites/3/","display":"DM-Albany","name":"DM-Albany","slug":"dm-albany","description":""},"location":null,"rack":{"id":2,"url":"http://localhost:8042/api/dcim/racks/2/","display":"Comms
        closet","name":"Comms closet","description":""},"position":4.0,"face":{"value":"front","label":"Front"},"latitude":null,"longitude":null,"parent_device":null,"status":{"value":"active","label":"Active"},"airflow":null,"primary_ip":null,"primary_ip4":null,"primary_ip6":null,"oob_ip":null,"cluster":null,"virtual_chassis":null,"vc_position":null,"vc_priority":null,"description":"","comments":"","config_template":null,"config_context":{},"local_context_data":null,"tags":[],"custom_fields":{},"created":"2020-12-20T00:00:00Z","last_updated":"2020-12-20T02:51:32.863000Z","console_port_count":2,"console_server_port_count":0,"power_port_count":1,"power_outlet_count":0,"interface_count":14,"front_port_count":0,"rear_port_count":0,"device_bay_count":0,"module_bay_count":0,"inventory_item_count":0},{"id":15,"url":"http://localhost:8042/api/dcim/devices/15/","display_url":"http://localhost:8042/dcim/devices/15/","display":"dmi01-albany-sw01","name":"dmi01-albany-sw01","device_type":{"id":7,"url":"http://localhost:8042/api/dcim/device-types/7/","display":"C9200-48P","manufacturer":{"id":3,"url":"http://localhost:8042/api/dcim/manufacturers/3/","display":"Cisco","name":"Cisco","slug":"cisco","description":""},"model":"C9200-48P","slug":"c9200-48p","description":""},"role":{"id":4,"url":"http://localhost:8042/api/dcim/device-roles/4/","display":"Access
        Switch","name":"Access Switch","slug":"access-switch","description":""},"tenant":{"id":5,"url":"http://localhost:8042/api/tenancy/tenants/5/","display":"Dunder-Mifflin,
        Inc.","name":"Dunder-Mifflin, Inc.","slug":"dunder-mifflin","description":""},"platform":null,"serial":"","asset_tag":null,"site":{"id":3,"url":"http://localhost:8042/api/dcim/sites/3/","display":"DM-Albany","name":"DM-Albany","slug":"dm-albany","description":""},"location":null,"rack":{"id":2,"url":"http://localhost:8042/api/dcim/racks/2/","display":"Comms
        closet","name":"Comms closet","description":""},"position":10.0,"face":{"value":"front","label":"Front"},"latitude":null,"longitude":null,"parent_device":null,"status":{"value":"active","label":"Active"},"airflow":null,"primary_ip":null,"primary_ip4":null,"primary_ip6":null,"oob_ip":null,"cluster":null,"virtual_chassis":null,"vc_position":null,"vc_priority":null,"description":"","comments":"","config_template":null,"config_context":{},"local_context_data":null,"tags":[],"custom_fields":{},"created":"2020-12-22T00:00:00Z","last_updated":"2020-12-22T02:11:11.714000Z","console_port_count":0,"console_server_port_count":0,"power_port_count":1,"power_outlet_count":0,"interface_count":52,"front_port_count":0,"rear_port_count":0,"device_bay_count":0,"module_bay_count":0,"inventory_item_count":0},{"id":35,"url":"http://localhost:8042/api/dcim/devices/35/","display_url":"http://localhost:8042/dcim/devices/35/","display":"dmi01-binghamton-pdu01","name":"dmi01-binghamton-pdu01","device_type":{"id":8,"url":"http://localhost:8042/api/dcim/device-types/8/","display":"AP7901","manufacturer":{"id":11,"url":"http://localhost:8042/api/dcim/manufacturers/11/","display":"APC","name":"APC","slug":"apc","description":""},"model":"AP7901","slug":"ap7901","description":""},"role":{"id":5,"url":"http://localhost:8042/api/dcim/device-roles/5/","display":"PDU","name":"PDU","slug":"pdu","description":""},"tenant":{"id":5,"url":"http://localhost:8042/api/tenancy/tenants/5/","display":"Dunder-Mifflin,
        Inc.","name":"Dunder-Mifflin, Inc.","slug":"dunder-mifflin","description":""},"platform":null,"serial":"","asset_tag":null,"site":{"id":4,"url":"http://localhost:8042/api/dcim/sites/4/","display":"DM-Binghamton","name":"DM-Binghamton","slug":"dm-binghamton","description":""},"location":null,"rack":{"id":3,"url":"http://localhost:8042/api/dcim/racks/3/","display":"Comms
        closet","name":"Comms closet","description":""},"position":1.0,"face":{"value":"front","label":"Front"},"latitude":null,"longitude":null,"parent_device":null,"status":{"value":"active","label":"Active"},"airflow":null,"primary_ip":null,"primary_ip4":null,"primary_ip6":null,"oob_ip":null,"cluster":null,"virtual_chassis":null,"vc_position":null,"vc_priority":null,"description":"","comments":"","config_template":null,"config_context":{},"local_context_data":null,"tags":[],"custom_fields":{},"created":"2020-12-22T00:00:00Z","last_updated":"2020-12-30T19:02:56.038000Z","console_port_count":0,"console_server_port_count":0,"power_port_count":1,"power_outlet_count":8,"interface_count":0,"front_port_count":0,"rear_port_count":0,"device_bay_count":0,"module_bay_count":0,"inventory_item_count":0},{"id":3,"url":"http://localhost:8042/api/dcim/devices/3/","display_url":"http://localhost:8042/dcim/devices/3/","display":"dmi01-binghamton-rtr01","name":"dmi01-binghamton-rtr01","device_type":{"id":6,"url":"http://localhost:8042/api/dcim/device-types/6/","display":"ISR
        1111-8P","manufacturer":{"id":3,"url":"http://localhost:8042/api/dcim/manufacturers/3/","display":"Cisco","name":"Cisco","slug":"cisco","description":""},"model":"ISR
        1111-8P","slug":"isr1111","description":""},"role":{"id":1,"url":"http://localhost:8042/api/dcim/device-roles/1/","display":"Router","name":"Router","slug":"router","description":""},"tenant":{"id":5,"url":"http://localhost:8042/api/tenancy/tenants/5/","display":"Dunder-Mifflin,
        Inc.","name":"Dunder-Mifflin, Inc.","slug":"dunder-mifflin","description":""},"platform":{"id":1,"url":"http://localhost:8042/api/dcim/platforms/1/","display":"Cisco
        IOS","name":"Cisco IOS","slug":"cisco-ios","description":""},"serial":"","asset_tag":null,"site":{"id":4,"url":"http://localhost:8042/api/dcim/sites/4/","display":"DM-Binghamton","name":"DM-Binghamton","slug":"dm-binghamton","description":""},"location":null,"rack":{"id":3,"url":"http://localhost:8042/api/dcim/racks/3/","display":"Comms
        closet","name":"Comms closet","description":""},"position":4.0,"face":{"value":"front","label":"Front"},"latitude":null,"longitude":null,"parent_device":null,"status":{"value":"active","label":"Active"},"airflow":null,"primary_ip":null,"primary_ip4":null,"primary_ip6":null,"oob_ip":null,"cluster":null,"virtual_chassis":null,"vc_position":null,"vc_priority":null,"description":"","comments":"","config_template":null,"config_context":{},"local_context_data":null,"tags":[],"custom_fields":{},"created":"2020-12-20T00:00:00Z","last_updated":"2020-12-20T02:52:02.614000Z","console_port_count":2,"console_server_port_count":0,"power_port_count":1,"power_outlet_count":0,"interface_count":14,"front_port_count":0,"rear_port_count":0,"device_bay_count":0,"module_bay_count":0,"inventory_item_count":0},{"id":16,"url":"http://localhost:8042/api/dcim/devices/16/","display_url":"http://localhost:8042/dcim/devices/16/","display":"dmi01-binghamton-sw01","name":"dmi01-binghamton-sw01","device_type":{"id":7,"url":"http://localhost:8042/api/dcim/device-types/7/","display":"C9200-48P","manufacturer":{"id":3,"url":"http://localhost:8042/api/dcim/manufacturers/3/","display":"Cisco","name":"Cisco","slug":"cisco","description":""},"model":"C9200-48P","slug":"c9200-48p","description":""},"role":{"id":4,"url":"http://localhost:8042/api/dcim/device-roles/4/","display":"Access
        Switch","name":"Access Switch","slug":"access-switch","description":""},"tenant":{"id":5,"url":"http://localhost:8042/api/tenancy/tenants/5/","display":"Dunder-Mifflin,
        Inc.","name":"Dunder-Mifflin, Inc.","slug":"dunder-mifflin","description":""},"platform":null,"serial":"","asset_tag":null,"site":{"id":4,"url":"http://localhost:8042/api/dcim/sites/4/","display":"DM-Binghamton","name":"DM-Binghamton","slug":"dm-binghamton","description":""},"location":null,"rack":{"id":3,"url":"http://localhost:8042/api/dcim/racks/3/","display":"Comms
        closet","name":"Comms closet","description":""},"position":10.0,"face":{"value":"front","label":"Front"},"latitude":null,"longitude":null,"parent_device":null,"status":{"value":"active","label":"Active"},"airflow":null,"primary_ip":null,"primary_ip4":null,"primary_ip6":null,"oob_ip":null,"cluster":null,"virtual_chassis":null,"vc_position":null,"vc_priority":null,"description":"","comments":"","config_template":null,"config_context":{},"local_context_data":null,"tags":[],"custom_fields":{},"created":"2020-12-22T00:00:00Z","last_updated":"2020-12-22T02:11:11.799000Z","console_port_count":0,"console_server_port_count":0,"power_port_count":1,"power_outlet_count":0,"interface_count":52,"front_port_count":0,"rear_port_count":0,"device_bay_count":0,"module_bay_count":0,"inventory_item_count":0},{"id":36,"url":"http://localhost:8042/api/dcim/devices/36/","display_url":"http://localhost:8042/dcim/devices/36/","display":"dmi01-buffalo-pdu01","name":"dmi01-buffalo-pdu01","device_type":{"id":8,"url":"http://localhost:8042/api/dcim/device-types/8/","display":"AP7901","manufacturer":{"id":11,"url":"http://localhost:8042/api/dcim/manufacturers/11/","display":"APC","name":"APC","slug":"apc","description":""},"model":"AP7901","slug":"ap7901","description":""},"role":{"id":5,"url":"http://localhost:8042/api/dcim/device-roles/5/","display":"PDU","name":"PDU","slug":"pdu","description":""},"tenant":{"id":5,"url":"http://localhost:8042/api/tenancy/tenants/5/","display":"Dunder-Mifflin,
        Inc.","name":"Dunder-Mifflin, Inc.","slug":"dunder-mifflin","description":""},"platform":null,"serial":"","asset_tag":null,"site":{"id":5,"url":"http://localhost:8042/api/dcim/sites/5/","display":"DM-Buffalo","name":"DM-Buffalo","slug":"dm-buffalo","description":""},"location":null,"rack":{"id":4,"url":"http://localhost:8042/api/dcim/racks/4/","display":"Comms
        closet","name":"Comms closet","description":""},"position":1.0,"face":{"value":"front","label":"Front"},"latitude":null,"longitude":null,"parent_device":null,"status":{"value":"active","label":"Active"},"airflow":null,"primary_ip":null,"primary_ip4":null,"primary_ip6":null,"oob_ip":null,"cluster":null,"virtual_chassis":null,"vc_position":null,"vc_priority":null,"description":"","comments":"","config_template":null,"config_context":{},"local_context_data":null,"tags":[],"custom_fields":{},"created":"2020-12-22T00:00:00Z","last_updated":"2020-12-30T19:02:56.155000Z","console_port_count":0,"console_server_port_count":0,"power_port_count":1,"power_outlet_count":8,"interface_count":0,"front_port_count":0,"rear_port_count":0,"device_bay_count":0,"module_bay_count":0,"inventory_item_count":0}]}'
    headers:
      Allow:
      - GET, POST, PUT, PATCH, DELETE, HEAD, OPTIONS
      Content-Language:
      - en
      Content-Length:
      - '19212'
      Content-Type:
      - application/json
      Cross-Origin-Opener-Policy:
      - same-origin
      Referrer-Policy:
      - same-origin
      Server:
      - Unit/1.34.1
      Vary:
      - HX-Request, Accept-Language, Cookie, origin
      X-Content-Type-Options:
      - nosniff
      X-Frame-Options:
      - SAMEORIGIN
    status:
      code: 200
      message: OK
version: 1
