interactions:
- request:
    body: null
    headers:
      Accept:
      - '*/*'
      Accept-Encoding:
      - gzip, deflate, zstd
      Connection:
      - keep-alive
      User-Agent:
      - python-requests/2.33.1
    method: GET
    uri: http://localhost:8042/api/ipam/vlans/?limit=10&offset=0
  response:
    body:
      string: '{"count":63,"next":"http://localhost:8042/api/ipam/vlans/?limit=10&offset=10","previous":null,"results":[{"id":1,"url":"http://localhost:8042/api/ipam/vlans/1/","display_url":"http://localhost:8042/ipam/vlans/1/","display":"Data
        (100)","site":{"id":2,"url":"http://localhost:8042/api/dcim/sites/2/","display":"DM-Akron","name":"DM-Akron","slug":"dm-akron","description":""},"group":null,"vid":100,"name":"Data","tenant":{"id":5,"url":"http://localhost:8042/api/tenancy/tenants/5/","display":"Dunder-Mifflin,
        Inc.","name":"Dunder-Mifflin, Inc.","slug":"dunder-mifflin","description":""},"status":{"value":"active","label":"Active"},"role":{"id":1,"url":"http://localhost:8042/api/ipam/roles/1/","display":"Access
        - Data","name":"Access - Data","slug":"access-data","description":""},"description":"","qinq_role":null,"qinq_svlan":null,"comments":"","l2vpn_termination":null,"tags":[],"custom_fields":{},"created":"2020-12-30T00:00:00Z","last_updated":"2021-03-10T20:55:36.697000Z","prefix_count":1},{"id":2,"url":"http://localhost:8042/api/ipam/vlans/2/","display_url":"http://localhost:8042/ipam/vlans/2/","display":"Voice
        (200)","site":{"id":2,"url":"http://localhost:8042/api/dcim/sites/2/","display":"DM-Akron","name":"DM-Akron","slug":"dm-akron","description":""},"group":null,"vid":200,"name":"Voice","tenant":{"id":5,"url":"http://localhost:8042/api/tenancy/tenants/5/","display":"Dunder-Mifflin,
        Inc.","name":"Dunder-Mifflin, Inc.","slug":"dunder-mifflin","description":""},"status":{"value":"active","label":"Active"},"role":{"id":2,"url":"http://localhost:8042/api/ipam/roles/2/","display":"Access
        - Voice","name":"Access - Voice","slug":"access-voice","description":""},"description":"","qinq_role":null,"qinq_svlan":null,"comments":"","l2vpn_termination":null,"tags":[],"custom_fields":{},"created":"2020-12-30T00:00:00Z","last_updated":"2021-03-10T20:55:36.763000Z","prefix_count":1},{"id":27,"url":"http://localhost:8042/api/ipam/vlans/27/","display_url":"http://localhost:8042/ipam/vlans/27/","display":"Wireless
        (300)","site":{"id":2,"url":"http://localhost:8042/api/dcim/sites/2/","display":"DM-Akron","name":"DM-Akron","slug":"dm-akron","description":""},"group":null,"vid":300,"name":"Wireless","tenant":{"id":5,"url":"http://localhost:8042/api/tenancy/tenants/5/","display":"Dunder-Mifflin,
        Inc.","name":"Dunder-Mifflin, Inc.","slug":"dunder-mifflin","description":""},"status":{"value":"active","label":"Active"},"role":{"id":3,"url":"http://localhost:8042/api/ipam/roles/3/","display":"Access
        - Wireless","name":"Access - Wireless","slug":"access-wireless","description":""},"description":"","qinq_role":null,"qinq_svlan":null,"comments":"","l2vpn_termination":null,"tags":[],"custom_fields":{},"created":"2020-12-30T00:00:00Z","last_updated":"2021-03-10T20:55:36.823000Z","prefix_count":1},{"id":3,"url":"http://localhost:8042/api/ipam/vlans/3/","display_url":"http://localhost:8042/ipam/vlans/3/","display":"Data
        (100)","site":{"id":3,"url":"http://localhost:8042/api/dcim/sites/3/","display":"DM-Albany","name":"DM-Albany","slug":"dm-albany","description":""},"group":null,"vid":100,"name":"Data","tenant":{"id":5,"url":"http://localhost:8042/api/tenancy/tenants/5/","display":"Dunder-Mifflin,
        Inc.","name":"Dunder-Mifflin, Inc.","slug":"dunder-mifflin","description":""},"status":{"value":"active","label":"Active"},"role":{"id":1,"url":"http://localhost:8042/api/ipam/roles/1/","display":"Access
        - Data","name":"Access - Data","slug":"access-data","description":""},"description":"","qinq_role":null,"qinq_svlan":null,"comments":"","l2vpn_termination":null,"tags":[],"custom_fields":{},"created":"2020-12-30T00:00:00Z","last_updated":"2021-03-10T20:55:36.882000Z","prefix_count":1},{"id":4,"url":"http://localhost:8042/api/ipam/vlans/4/","display_url":"http://localhost:8042/ipam/vlans/4/","display":"Voice
        (200)","site":{"id":3,"url":"http://localhost:8042/api/dcim/sites/3/","display":"DM-Albany","name":"DM-Albany","slug":"dm-albany","description":""},"group":null,"vid":200,"name":"Voice","tenant":{"id":5,"url":"http://localhost:8042/api/tenancy/tenants/5/","display":"Dunder-Mifflin,
        Inc.","name":"Dunder-Mifflin, Inc.","slug":"dunder-mifflin","description":""},"status":{"value":"active","label":"Active"},"role":{"id":2,"url":"http://localhost:8042/api/ipam/roles/2/","display":"Access
        - Voice","name":"Access - Voice","slug":"access-voice","description":""},"description":"","qinq_role":null,"qinq_svlan":null,"comments":"","l2vpn_termination":null,"tags":[],"custom_fields":{},"created":"2020-12-30T00:00:00Z","last_updated":"2021-03-10T20:55:36.943000Z","prefix_count":1},{"id":28,"url":"http://localhost:8042/api/ipam/vlans/28/","display_url":"http://localhost:8042/ipam/vlans/28/","display":"Wireless
        (300)","site":{"id":3,"url":"http://localhost:8042/api/dcim/sites/3/","display":"DM-Albany","name":"DM-Albany","slug":"dm-albany","description":""},"group":null,"vid":300,"name":"Wireless","tenant":{"id":5,"url":"http://localhost:8042/api/tenancy/tenants/5/","display":"Dunder-Mifflin,
        Inc.","name":"Dunder-Mifflin, Inc.","slug":"dunder-mifflin","description":""},"status":{"value":"active","label":"Active"},"role":{"id":3,"url":"http://localhost:8042/api/ipam/roles/3/","display":"Access
        - Wireless","name":"Access - Wireless","slug":"access-wireless","description":""},"description":"","qinq_role":null,"qinq_svlan":null,"comments":"","l2vpn_termination":null,"tags":[],"custom_fields":{},"created":"2020-12-30T00:00:00Z","last_updated":"2021-03-10T20:55:37.003000Z","prefix_count":1},{"id":5,"url":"http://localhost:8042/api/ipam/vlans/5/","display_url":"http://localhost:8042/ipam/vlans/5/","display":"Data
        (100)","site":{"id":4,"url":"http://localhost:8042/api/dcim/sites/4/","display":"DM-Binghamton","name":"DM-Binghamton","slug":"dm-binghamton","description":""},"group":null,"vid":100,"name":"Data","tenant":{"id":5,"url":"http://localhost:8042/api/tenancy/tenants/5/","display":"Dunder-Mifflin,
        Inc.","name":"Dunder-Mifflin, Inc.","slug":"dunder-mifflin","description":""},"status":{"value":"active","label":"Active"},"role":{"id":1,"url":"http://localhost:8042/api/ipam/roles/1/","display":"Access
        - Data","name":"Access - Data","slug":"access-data","description":""},"description":"","qinq_role":null,"qinq_svlan":null,"comments":"","l2vpn_termination":null,"tags":[],"custom_fields":{},"created":"2020-12-30T00:00:00Z","last_updated":"2021-03-10T20:55:37.063000Z","prefix_count":1},{"id":6,"url":"http://localhost:8042/api/ipam/vlans/6/","display_url":"http://localhost:8042/ipam/vlans/6/","display":"Voice
        (200)","site":{"id":4,"url":"http://localhost:8042/api/dcim/sites/4/","display":"DM-Binghamton","name":"DM-Binghamton","slug":"dm-binghamton","description":""},"group":null,"vid":200,"name":"Voice","tenant":{"id":5,"url":"http://localhost:8042/api/tenancy/tenants/5/","display":"Dunder-Mifflin,
        Inc.","name":"Dunder-Mifflin, Inc.","slug":"dunder-mifflin","description":""},"status":{"value":"active","label":"Active"},"role":{"id":2,"url":"http://localhost:8042/api/ipam/roles/2/","display":"Access
        - Voice","name":"Access - Voice","slug":"access-voice","description":""},"description":"","qinq_role":null,"qinq_svlan":null,"comments":"","l2vpn_termination":null,"tags":[],"custom_fields":{},"created":"2020-12-30T00:00:00Z","last_updated":"2021-03-10T20:55:37.123000Z","prefix_count":1},{"id":29,"url":"http://localhost:8042/api/ipam/vlans/29/","display_url":"http://localhost:8042/ipam/vlans/29/","display":"Wireless
        (300)","site":{"id":4,"url":"http://localhost:8042/api/dcim/sites/4/","display":"DM-Binghamton","name":"DM-Binghamton","slug":"dm-binghamton","description":""},"group":null,"vid":300,"name":"Wireless","tenant":{"id":5,"url":"http://localhost:8042/api/tenancy/tenants/5/","display":"Dunder-Mifflin,
        Inc.","name":"Dunder-Mifflin, Inc.","slug":"dunder-mifflin","description":""},"status":{"value":"active","label":"Active"},"role":{"id":3,"url":"http://localhost:8042/api/ipam/roles/3/","display":"Access
        - Wireless","name":"Access - Wireless","slug":"access-wireless","description":""},"description":"","qinq_role":null,"qinq_svlan":null,"comments":"","l2vpn_termination":null,"tags":[],"custom_fields":{},"created":"2020-12-30T00:00:00Z","last_updated":"2021-03-10T20:55:37.234000Z","prefix_count":1},{"id":7,"url":"http://localhost:8042/api/ipam/vlans/7/","display_url":"http://localhost:8042/ipam/vlans/7/","display":"Data
        (100)","site":{"id":5,"url":"http://localhost:8042/api/dcim/sites/5/","display":"DM-Buffalo","name":"DM-Buffalo","slug":"dm-buffalo","description":""},"group":null,"vid":100,"name":"Data","tenant":{"id":5,"url":"http://localhost:8042/api/tenancy/tenants/5/","display":"Dunder-Mifflin,
        Inc.","name":"Dunder-Mifflin, Inc.","slug":"dunder-mifflin","description":""},"status":{"value":"active","label":"Active"},"role":{"id":1,"url":"http://localhost:8042/api/ipam/roles/1/","display":"Access
        - Data","name":"Access - Data","slug":"access-data","description":""},"description":"","qinq_role":null,"qinq_svlan":null,"comments":"","l2vpn_termination":null,"tags":[],"custom_fields":{},"created":"2020-12-30T00:00:00Z","last_updated":"2021-03-10T20:55:37.309000Z","prefix_count":1}]}'
    headers:
      Allow:
      - GET, POST, PUT, PATCH, DELETE, HEAD, OPTIONS
      Content-Language:
      - en
      Content-Length:
      - '9180'
      Content-Type:
      - application/json
      Cross-Origin-Opener-Policy:
      - same-origin
      Referrer-Policy:
      - same-origin
      Server:
      - Unit/1.34.1
      Vary:
      - HX-Request, Accept-Language, Cookie, origin
      X-Content-Type-Options:
      - nosniff
      X-Frame-Options:
      - SAMEORIGIN
    status:
      code: 200
      message: OK
version: 1
